<?xml version="1.0" encoding="UTF-8" standalone="no"?>
<!-- Created with Inkscape (http://www.inkscape.org/) -->

<svg
   xmlns:dc="http://purl.org/dc/elements/1.1/"
   xmlns:cc="http://creativecommons.org/ns#"
   xmlns:rdf="http://www.w3.org/1999/02/22-rdf-syntax-ns#"
   xmlns:svg="http://www.w3.org/2000/svg"
   xmlns="http://www.w3.org/2000/svg"
   xmlns:sodipodi="http://sodipodi.sourceforge.net/DTD/sodipodi-0.dtd"
   xmlns:inkscape="http://www.inkscape.org/namespaces/inkscape"
   width="17.779736mm"
   height="17.777353mm"
   viewBox="0 0 17.779736 17.777353"
   version="1.1"
   id="svg8"
   inkscape:version="0.92.5 (2060ec1f9f, 2020-04-08)"
   sodipodi:docname="vereinen-icon.svg">
  <defs
     id="defs2">
    <linearGradient
       y2="11.232"
       x2="197.17"
       y1="249.007"
       x1="200.78799"
       gradientUnits="userSpaceOnUse"
       id="Gradient_1">
      <stop
         id="stop5"
         stop-color="#589632"
         offset="0" />
      <stop
         id="stop7"
         stop-color="#93B023"
         offset="1" />
    </linearGradient>
    <linearGradient
       y2="16.927999"
       x2="126.351"
       y1="252.718"
       x1="129.939"
       gradientUnits="userSpaceOnUse"
       id="Gradient_2">
      <stop
         id="stop10"
         stop-color="#589632"
         offset="0" />
      <stop
         id="stop12"
         stop-color="#93B023"
         offset="1" />
    </linearGradient>
  </defs>
  <sodipodi:namedview
     id="base"
     pagecolor="#ffffff"
     bordercolor="#666666"
     borderopacity="1.0"
     inkscape:pageopacity="0.0"
     inkscape:pageshadow="2"
     inkscape:zoom="7.9195959"
     inkscape:cx="41.60715"
     inkscape:cy="24.568472"
     inkscape:document-units="mm"
     inkscape:current-layer="g832"
     showgrid="false"
     fit-margin-top="0"
     fit-margin-left="0"
     fit-margin-right="0"
     fit-margin-bottom="0"
     inkscape:window-width="2560"
     inkscape:window-height="1386"
     inkscape:window-x="0"
     inkscape:window-y="0"
     inkscape:window-maximized="1"
     inkscape:snap-global="false"
     inkscape:snap-bbox="true"
     inkscape:snap-midpoints="true"
     inkscape:snap-smooth-nodes="true"
     inkscape:object-nodes="true"
     inkscape:snap-center="true"
     inkscape:snap-object-midpoints="true"
     inkscape:bbox-paths="true"
     inkscape:bbox-nodes="true"
     inkscape:snap-bbox-edge-midpoints="true"
     inkscape:snap-bbox-midpoints="true"
     inkscape:snap-nodes="true"
     inkscape:object-paths="true"
     inkscape:snap-intersection-paths="true"
     inkscape:snap-page="true" />
  <metadata
     id="metadata5">
    <rdf:RDF>
      <cc:Work
         rdf:about="">
        <dc:format>image/svg+xml</dc:format>
        <dc:type
           rdf:resource="http://purl.org/dc/dcmitype/StillImage" />
        <dc:title></dc:title>
      </cc:Work>
    </rdf:RDF>
  </metadata>
  <g
     inkscape:label="Layer 1"
     inkscape:groupmode="layer"
     id="layer1"
     transform="translate(-59.038445,-157.66295)">
    <g
       id="g832"
       transform="matrix(0.26458333,0,0,0.26458333,54.699014,153.32246)">
      <g
         id="g896">
        <path
           style="clip-rule:evenodd;fill:#86b051;fill-opacity:1;fill-rule:evenodd;stroke-width:0.90077394"
           d="M 10.808594 21.800781 C 4.8382638 21.800781 0 26.639946 0 32.609375 L 0 56.380859 C 0 62.350288 4.8391638 67.189453 10.808594 67.189453 L 34.587891 67.189453 C 40.558221 67.189453 45.398438 62.349235 45.398438 56.378906 L 45.398438 32.609375 C 45.398438 26.639946 40.558221 21.800781 34.587891 21.800781 L 10.808594 21.800781 z M 10.828125 28.314453 L 34.617188 28.314453 C 37.005139 28.314453 38.941406 30.248768 38.941406 32.636719 L 38.941406 56.419922 C 38.941406 58.807873 37.005139 60.742188 34.617188 60.742188 L 10.828125 60.742188 C 8.440173 60.742187 6.5039062 58.807873 6.5039062 56.419922 L 6.5039062 32.636719 C 6.5039062 30.248768 8.440173 28.314453 10.828125 28.314453 z "
           transform="translate(16.400999,16.405002)"
           id="path890-7" />
        <path
           style="clip-rule:evenodd;fill:#5f9930;fill-opacity:1;fill-rule:evenodd"
           d="M 28.800781 0 C 22.172781 2.3684758e-15 16.800781 5.3730001 16.800781 12 L 16.800781 38.390625 C 16.800781 45.017625 22.173781 50.390625 28.800781 50.390625 L 55.197266 50.390625 C 61.825266 50.390625 67.199219 45.016672 67.199219 38.388672 L 67.199219 12 C 67.199219 5.3730001 61.827219 0 55.199219 0 L 28.800781 0 z M 28.820312 7.2304688 L 55.230469 7.2304688 C 57.881469 7.2304688 60.029297 9.38025 60.029297 12.03125 L 60.029297 38.433594 C 60.029297 41.084594 57.881469 43.232422 55.230469 43.232422 L 28.820312 43.232422 C 26.169313 43.232422 24.021484 41.084594 24.021484 38.433594 L 24.021484 12.03125 C 24.021484 9.38025 26.169313 7.2304688 28.820312 7.2304688 z "
           transform="translate(16.400999,16.405002)"
           id="path890" />
        <g
           id="g936"
           transform="translate(0.987,2.716)" />
      </g>
    </g>
  </g>
</svg>
