<?xml version="1.0" encoding="UTF-8" standalone="no"?>
<!-- Created with Inkscape (http://www.inkscape.org/) -->

<svg
   xmlns:osb="http://www.openswatchbook.org/uri/2009/osb"
   xmlns:dc="http://purl.org/dc/elements/1.1/"
   xmlns:cc="http://creativecommons.org/ns#"
   xmlns:rdf="http://www.w3.org/1999/02/22-rdf-syntax-ns#"
   xmlns:svg="http://www.w3.org/2000/svg"
   xmlns="http://www.w3.org/2000/svg"
   xmlns:xlink="http://www.w3.org/1999/xlink"
   xmlns:sodipodi="http://sodipodi.sourceforge.net/DTD/sodipodi-0.dtd"
   xmlns:inkscape="http://www.inkscape.org/namespaces/inkscape"
   width="1000"
   height="350"
   viewBox="0 0 999.99996 349.99999"
   id="svg7180"
   version="1.1"
   inkscape:version="0.91 r13725"
   sodipodi:docname="mapsite-logo-path.svg"
   inkscape:export-filename="/home/map/Documents/MapSiteVerlag/Bilder/mapsite-logo.png"
   inkscape:export-xdpi="72"
   inkscape:export-ydpi="72">
  <defs
     id="defs7182">
    <linearGradient
       id="linearGradient4155"
       osb:paint="solid">
      <stop
         style="stop-color:#ffffff;stop-opacity:1;"
         offset="0"
         id="stop4157" />
    </linearGradient>
    <linearGradient
       inkscape:collect="always"
       xlink:href="#linearGradient4388"
       id="linearGradient6699"
       gradientUnits="userSpaceOnUse"
       gradientTransform="matrix(4.4966656,0,0,3.5063401,-2003.1306,-731.26557)"
       x1="481.31827"
       y1="322.34534"
       x2="481.06015"
       y2="272.72046" />
    <linearGradient
       inkscape:collect="always"
       id="linearGradient4388">
      <stop
         style="stop-color:#ffffff;stop-opacity:1;"
         offset="0"
         id="stop4390" />
      <stop
         style="stop-color:#ffffff;stop-opacity:0;"
         offset="1"
         id="stop4392" />
    </linearGradient>
    <linearGradient
       inkscape:collect="always"
       xlink:href="#linearGradient4155"
       id="linearGradient4159"
       x1="135.98456"
       y1="566.02826"
       x2="921.1944"
       y2="566.02826"
       gradientUnits="userSpaceOnUse" />
  </defs>
  <sodipodi:namedview
     id="base"
     pagecolor="#ffffff"
     bordercolor="#666666"
     borderopacity="1.0"
     inkscape:pageopacity="1"
     inkscape:pageshadow="2"
     inkscape:zoom="0.24748737"
     inkscape:cx="625.07774"
     inkscape:cy="33.673267"
     inkscape:document-units="px"
     inkscape:current-layer="layer1"
     showgrid="false"
     fit-margin-top="0"
     fit-margin-left="0"
     fit-margin-right="0"
     fit-margin-bottom="0"
     inkscape:window-width="2560"
     inkscape:window-height="1360"
     inkscape:window-x="0"
     inkscape:window-y="27"
     inkscape:window-maximized="1"
     units="px" />
  <metadata
     id="metadata7185">
    <rdf:RDF>
      <cc:Work
         rdf:about="">
        <dc:format>image/svg+xml</dc:format>
        <dc:type
           rdf:resource="http://purl.org/dc/dcmitype/StillImage" />
        <dc:title></dc:title>
      </cc:Work>
    </rdf:RDF>
  </metadata>
  <g
     inkscape:label="Layer 1"
     inkscape:groupmode="layer"
     id="layer1"
     transform="translate(193.87825,-289.51971)">
    <path
       style="fill:#008000;fill-opacity:1;fill-rule:evenodd;stroke:#589632;stroke-width:2.00578785;stroke-linecap:butt;stroke-linejoin:miter;stroke-miterlimit:4;stroke-dasharray:none;stroke-opacity:1"
       d="m 803.74789,513.66769 -746.287399,0"
       id="path4863-9-0-8-7-1-9-9-2"
       inkscape:connector-curvature="0"
       inkscape:export-xdpi="23.642202"
       inkscape:export-ydpi="23.642202" />
    <g
       id="g3440-1-3-0-9-7-1-0-5-1"
       transform="matrix(1.0480717,0.56905987,-0.56905987,1.0480717,-54.110236,98.40549)"
       inkscape:transform-center-x="37.157103"
       inkscape:transform-center-y="-7.4313527"
       inkscape:export-xdpi="23.642202"
       inkscape:export-ydpi="23.642202">
      <path
         inkscape:export-ydpi="92"
         inkscape:export-xdpi="92"
         inkscape:export-filename="/home/map/Documents/MapSiteVerlag/visitenkarte-vorderseite"
         style="fill:#483e37;fill-opacity:1;fill-rule:nonzero;stroke:#ffffff;stroke-width:2.91665673;stroke-miterlimit:4"
         d="M 168.73587,419.23303 156.69636,270.32385 7.7870704,258.28413 156.69636,246.24461 168.73587,97.335425 180.77539,246.24461 329.68477,258.28413 180.77539,270.32385 Z"
         id="path4329-22-2-6-3-2-1-7-3-6-0"
         inkscape:connector-curvature="0" />
      <path
         inkscape:export-ydpi="92"
         inkscape:export-xdpi="92"
         inkscape:export-filename="/home/map/Documents/MapSiteVerlag/visitenkarte-vorderseite"
         style="fill:#589632;fill-opacity:1;fill-rule:nonzero;stroke:#ffffff;stroke-width:2.13386822;stroke-miterlimit:4"
         d="m 251.99944,341.5479 -83.26357,-70.80682 -83.263528,70.80682 70.806778,-83.26357 -70.806778,-83.26357 83.263528,70.80662 83.26377,-70.80662 -70.80681,83.26357 z"
         id="path4329-2-3-7-1-6-0-7-7-9-9-4"
         inkscape:connector-curvature="0" />
      <path
         inkscape:export-ydpi="92"
         inkscape:export-xdpi="92"
         inkscape:export-filename="/home/map/Documents/MapSiteVerlag/visitenkarte-vorderseite"
         sodipodi:nodetypes="ccccccccccccc"
         inkscape:connector-curvature="0"
         id="rect4386-8-0-2-1-6-2-1-1-8-2"
         d="m 7.7854374,258.23636 312.9159026,0.0504 -129.95547,11.00026 61.25457,70.63106 -72.03089,-60.0313 -9.97008,121.29253 -2.529,-0.0242 -9.96806,-121.26794 -62.245265,52.06536 -1.4556,-1.44984 52.924535,-61.21527 -123.499096,-9.82133 z"
         style="fill:url(#linearGradient6699);fill-opacity:1;fill-rule:nonzero;stroke:#ffffff;stroke-width:0.80020231;stroke-linecap:round;stroke-linejoin:round;stroke-miterlimit:4;stroke-dasharray:none;stroke-dashoffset:0;stroke-opacity:1" />
    </g>
    <g
       style="font-style:normal;font-variant:normal;font-weight:normal;font-stretch:normal;font-size:143.93031311px;line-height:125%;font-family:'Century Schoolbook L';-inkscape-font-specification:'Century Schoolbook L';text-align:start;letter-spacing:0px;word-spacing:0px;writing-mode:lr-tb;text-anchor:start;fill:#589632;fill-opacity:1;stroke:#ffffff;stroke-width:0.8927536;stroke-linejoin:miter;stroke-miterlimit:4;stroke-dasharray:none;stroke-opacity:1"
       id="text4364-5-0-6-9-2-5-6-2">
      <path
         d="m 116.45277,562.2014 14.11165,0 -4.06054,19.09961 q -3.35873,1.15299 -6.24122,1.55403 -2.85742,0.42611 -6.06575,0.42611 -6.49186,0 -10.02604,-3.68457 -3.53418,-3.68457 -3.53418,-10.57748 0,-6.71744 2.68196,-12.13151 2.68197,-5.43912 7.5446,-8.37174 4.86263,-2.95768 11.22917,-2.95768 5.46419,0 10.27669,2.48144 l -2.88249,6.29134 q -1.85482,-1.0026 -3.70963,-1.60416 -1.85482,-0.60157 -4.03548,-0.60157 -3.83497,0 -6.86784,2.08041 -3.00782,2.0804 -4.73731,5.94043 -1.70442,3.83496 -1.70442,8.27148 0,4.3112 1.80468,6.34147 1.82976,2.00521 5.58952,2.00521 1.90495,0 4.26107,-0.60156 l 1.6543,-7.49447 -6.69239,0 1.40365,-6.46679 z"
         style="font-style:italic;font-variant:normal;font-weight:bold;font-stretch:normal;font-size:51.33333206px;font-family:'Open Sans';-inkscape-font-specification:'Open Sans Bold Italic';fill:#4d4d4d;fill-opacity:1;stroke:#ffffff;stroke-width:0.8927536;stroke-linejoin:miter;stroke-miterlimit:4;stroke-dasharray:none;stroke-opacity:1"
         id="path4367" />
      <path
         d="m 134.27406,582.77985 7.82031,-36.64519 7.64486,0 -7.82032,36.64519 -7.64485,0 z"
         style="font-style:italic;font-variant:normal;font-weight:bold;font-stretch:normal;font-size:51.33333206px;font-family:'Open Sans';-inkscape-font-specification:'Open Sans Bold Italic';fill:#4d4d4d;fill-opacity:1;stroke:#ffffff;stroke-width:0.8927536;stroke-linejoin:miter;stroke-miterlimit:4;stroke-dasharray:none;stroke-opacity:1"
         id="path4369" />
      <path
         d="m 173.20016,571.95172 q 0,5.23861 -3.70963,8.29655 -3.70964,3.03288 -10.05111,3.03288 -5.53939,0 -8.92318,-2.25586 l 0,-6.86784 q 4.83757,2.70703 8.97331,2.70703 2.80729,0 4.38639,-1.05273 1.57911,-1.0778 1.57911,-2.93262 0,-1.0778 -0.35092,-1.87988 -0.32584,-0.82715 -0.95247,-1.52897 -0.62663,-0.70183 -3.10807,-2.55664 -3.45899,-2.48145 -4.86263,-4.91276 -1.40365,-2.43132 -1.40365,-5.23861 0,-3.2334 1.55404,-5.76498 1.55403,-2.55664 4.41146,-3.96028 2.88248,-1.42871 6.61718,-1.42871 5.43913,0 9.95085,2.48144 l -2.7321,5.84017 q -3.91015,-1.85482 -7.21875,-1.85482 -2.0804,0 -3.40885,1.12793 -1.32845,1.12793 -1.32845,2.98275 0,1.52897 0.82715,2.68197 0.82715,1.12793 3.70963,3.00781 3.03288,2.00521 4.53679,4.43652 1.5039,2.40625 1.5039,5.63965 z"
         style="font-style:italic;font-variant:normal;font-weight:bold;font-stretch:normal;font-size:51.33333206px;font-family:'Open Sans';-inkscape-font-specification:'Open Sans Bold Italic';fill:#4d4d4d;fill-opacity:1;stroke:#ffffff;stroke-width:0.8927536;stroke-linejoin:miter;stroke-miterlimit:4;stroke-dasharray:none;stroke-opacity:1"
         id="path4371" />
      <path
         d="m 201.3984,543.92894 5.48926,0 0,50.50618 -5.48926,0 0,-50.50618 z"
         style="font-style:italic;font-variant:normal;font-weight:bold;font-stretch:normal;font-size:51.33333206px;font-family:'Open Sans';-inkscape-font-specification:'Open Sans Bold Italic';fill:#589632;fill-opacity:1;stroke:#ffffff;stroke-width:0.8927536;stroke-linejoin:miter;stroke-miterlimit:4;stroke-dasharray:none;stroke-opacity:1"
         id="path4373" />
      <path
         d="m 250.50094,562.2014 14.11165,0 -4.06054,19.09961 q -3.35873,1.15299 -6.24121,1.55403 -2.85743,0.42611 -6.06576,0.42611 -6.49186,0 -10.02604,-3.68457 -3.53418,-3.68457 -3.53418,-10.57748 0,-6.71744 2.68197,-12.13151 2.68196,-5.43912 7.54459,-8.37174 4.86263,-2.95768 11.22917,-2.95768 5.46419,0 10.27669,2.48144 l -2.88249,6.29134 q -1.85481,-1.0026 -3.70963,-1.60416 -1.85482,-0.60157 -4.03548,-0.60157 -3.83496,0 -6.86784,2.08041 -3.00781,2.0804 -4.73731,5.94043 -1.70442,3.83496 -1.70442,8.27148 0,4.3112 1.80468,6.34147 1.82976,2.00521 5.58952,2.00521 1.90495,0 4.26107,-0.60156 l 1.6543,-7.49447 -6.69239,0 1.40365,-6.46679 z"
         style="font-style:italic;font-variant:normal;font-weight:bold;font-stretch:normal;font-size:51.33333206px;font-family:'Open Sans';-inkscape-font-specification:'Open Sans Bold Italic';fill:#4d4d4d;fill-opacity:1;stroke:#ffffff;stroke-width:0.8927536;stroke-linejoin:miter;stroke-miterlimit:4;stroke-dasharray:none;stroke-opacity:1"
         id="path4375" />
      <path
         d="m 284.43909,559.66982 q -2.20573,0 -4.16081,2.00521 -1.95508,2.00521 -2.55664,4.88769 l 1.12793,0 q 3.88509,0 6.04069,-1.20312 2.18066,-1.22819 2.18066,-3.30859 0,-2.38119 -2.63183,-2.38119 z m -4.11068,23.61133 q -5.26367,0 -8.17122,-2.83236 -2.90756,-2.83236 -2.90756,-7.99577 0,-5.18847 2.05534,-9.44954 2.08041,-4.28613 5.61459,-6.51693 3.53418,-2.25586 7.99576,-2.25586 4.43653,0 6.91797,2.05534 2.48145,2.03028 2.48145,5.58952 0,4.68717 -4.18588,7.24381 -4.18587,2.53158 -11.95605,2.53158 l -1.27832,0 -0.0501,0.52637 0,0.5013 q 0,2.28092 1.27832,3.60937 1.30339,1.30339 3.70964,1.30339 2.18066,0 3.96028,-0.47624 1.77962,-0.47623 4.3112,-1.67936 l 0,5.68978 q -4.3112,2.1556 -9.77539,2.1556 z"
         style="font-style:italic;font-variant:normal;font-weight:bold;font-stretch:normal;font-size:51.33333206px;font-family:'Open Sans';-inkscape-font-specification:'Open Sans Bold Italic';fill:#4d4d4d;fill-opacity:1;stroke:#ffffff;stroke-width:0.8927536;stroke-linejoin:miter;stroke-miterlimit:4;stroke-dasharray:none;stroke-opacity:1"
         id="path4377" />
      <path
         d="m 315.7454,565.33453 q 0,-4.93782 -3.58431,-4.93782 -1.87988,0 -3.38379,1.52897 -1.47884,1.52897 -2.43131,4.48665 -0.92741,2.95769 -0.92741,6.09082 0,4.63705 3.75976,4.63705 1.87989,0 3.38379,-1.52897 1.50391,-1.55404 2.33106,-4.28614 0.85221,-2.75716 0.85221,-5.99056 z m 7.59473,0 q 0,5.28874 -1.77962,9.37435 -1.75456,4.08561 -5.08822,6.34147 -3.33366,2.2308 -7.92057,2.2308 -4.8877,0 -7.82032,-2.93262 -2.90755,-2.95768 -2.90755,-7.84538 0,-5.33886 1.77962,-9.49967 1.80469,-4.18587 5.18848,-6.4668 3.38379,-2.30599 7.92057,-2.30599 4.91276,0 7.77019,2.95769 2.85742,2.95768 2.85742,8.14615 z"
         style="font-style:italic;font-variant:normal;font-weight:bold;font-stretch:normal;font-size:51.33333206px;font-family:'Open Sans';-inkscape-font-specification:'Open Sans Bold Italic';fill:#4d4d4d;fill-opacity:1;stroke:#ffffff;stroke-width:0.8927536;stroke-linejoin:miter;stroke-miterlimit:4;stroke-dasharray:none;stroke-opacity:1"
         id="path4379" />
      <path
         d="m 346.80107,554.23069 q 5.48925,0 6.56705,5.71485 l 0.15039,0 q 1.70443,-2.75716 4.01042,-4.23601 2.33105,-1.47884 4.96289,-1.47884 3.40885,0 5.18848,2.13054 1.80468,2.13053 1.80468,5.94043 0,1.90494 -0.57649,4.51172 l -3.33366,15.96647 -7.5446,0 3.45899,-16.36752 q 0.40104,-1.70442 0.40104,-2.98274 0,-3.08301 -2.45638,-3.08301 -2.30599,0 -4.18587,2.80729 -1.85482,2.80729 -2.95769,7.9707 l -2.40625,11.65528 -7.54459,0 3.43392,-16.36752 q 0.40104,-1.70442 0.40104,-2.98274 0,-3.08301 -2.45638,-3.08301 -2.30599,0 -4.18587,2.85742 -1.87989,2.85742 -2.95769,7.9707 l -2.45638,11.60515 -7.54459,0 5.94043,-28.02279 5.76497,0 -0.52637,5.18848 0.15039,0 q 3.65951,-5.71485 8.89812,-5.71485 z"
         style="font-style:italic;font-variant:normal;font-weight:bold;font-stretch:normal;font-size:51.33333206px;font-family:'Open Sans';-inkscape-font-specification:'Open Sans Bold Italic';fill:#4d4d4d;fill-opacity:1;stroke:#ffffff;stroke-width:0.8927536;stroke-linejoin:miter;stroke-miterlimit:4;stroke-dasharray:none;stroke-opacity:1"
         id="path4381" />
      <path
         d="m 382.24311,583.28115 q -3.68457,0 -5.8151,-2.6569 -2.10547,-2.68197 -2.10547,-7.49447 0,-4.96289 1.80469,-9.44954 1.80469,-4.51172 4.7373,-6.9681 2.93262,-2.48145 6.44173,-2.48145 2.43132,0 4.18588,1.05274 1.77962,1.05273 2.75716,3.05794 l 0.20052,0 1.42871,-3.58431 5.8151,0 -5.96549,28.02279 -5.73991,0 0.35091,-3.63444 -0.10026,0 q -3.35872,4.13574 -7.99577,4.13574 z m 2.95769,-6.09082 q 1.72949,0 3.33365,-1.67936 1.60417,-1.67937 2.58171,-4.53679 0.97754,-2.88248 0.97754,-6.51692 0,-1.77963 -0.97754,-2.93262 -0.95247,-1.17806 -2.53158,-1.17806 -1.70442,0 -3.25846,1.80469 -1.52897,1.80468 -2.45638,4.76237 -0.90234,2.95768 -0.90234,5.86523 0,2.20573 0.82715,3.30859 0.85221,1.10287 2.40625,1.10287 z"
         style="font-style:italic;font-variant:normal;font-weight:bold;font-stretch:normal;font-size:51.33333206px;font-family:'Open Sans';-inkscape-font-specification:'Open Sans Bold Italic';fill:#4d4d4d;fill-opacity:1;stroke:#ffffff;stroke-width:0.8927536;stroke-linejoin:miter;stroke-miterlimit:4;stroke-dasharray:none;stroke-opacity:1"
         id="path4383" />
      <path
         d="m 415.42933,577.19033 q 1.62923,0 4.06055,-0.87728 l 0,5.63965 q -2.78223,1.32845 -6.66732,1.32845 -3.75977,0 -5.53939,-1.5791 -1.75455,-1.5791 -1.75455,-4.8877 0,-1.25325 0.30078,-2.80729 l 2.88248,-13.51009 -3.80989,0 0.72689,-3.68457 4.91276,-2.10547 3.30859,-5.91536 4.86263,0 -1.22819,5.96549 7.09342,0 -1.25325,5.73991 -7.06836,0 -2.88249,13.51009 q -0.15039,0.75195 -0.15039,1.32845 0,1.85482 2.20573,1.85482 z"
         style="font-style:italic;font-variant:normal;font-weight:bold;font-stretch:normal;font-size:51.33333206px;font-family:'Open Sans';-inkscape-font-specification:'Open Sans Bold Italic';fill:#4d4d4d;fill-opacity:1;stroke:#ffffff;stroke-width:0.8927536;stroke-linejoin:miter;stroke-miterlimit:4;stroke-dasharray:none;stroke-opacity:1"
         id="path4385" />
      <path
         d="m 431.67152,548.19 q 0,-2.18066 1.17806,-3.28353 1.20312,-1.12792 3.38379,-1.12792 1.82975,0 2.78222,0.77701 0.95248,0.77702 0.95248,2.2308 0,2.00521 -1.10287,3.25846 -1.10286,1.22819 -3.40885,1.22819 -3.78483,0 -3.78483,-3.08301 z m 0.40104,34.58985 -7.5446,0 5.94043,-28.02279 7.5446,0 -5.94043,28.02279 z"
         style="font-style:italic;font-variant:normal;font-weight:bold;font-stretch:normal;font-size:51.33333206px;font-family:'Open Sans';-inkscape-font-specification:'Open Sans Bold Italic';fill:#4d4d4d;fill-opacity:1;stroke:#ffffff;stroke-width:0.8927536;stroke-linejoin:miter;stroke-miterlimit:4;stroke-dasharray:none;stroke-opacity:1"
         id="path4387" />
      <path
         d="m 461.90001,554.75706 8.6224,0 -12.48242,12.63281 7.14355,15.38998 -8.42187,0 -4.58692,-10.52735 -3.00781,1.80469 -1.85482,8.72266 -7.54459,0 8.27148,-39.0013 7.5446,0 -3.70964,17.39518 q -0.20052,1.02767 -0.72689,2.93261 l -0.70182,2.55664 0.10026,0 11.35449,-11.90592 z"
         style="font-style:italic;font-variant:normal;font-weight:bold;font-stretch:normal;font-size:51.33333206px;font-family:'Open Sans';-inkscape-font-specification:'Open Sans Bold Italic';fill:#4d4d4d;fill-opacity:1;stroke:#ffffff;stroke-width:0.8927536;stroke-linejoin:miter;stroke-miterlimit:4;stroke-dasharray:none;stroke-opacity:1"
         id="path4389" />
      <path
         d="m 492.75518,543.92894 5.48926,0 0,50.50618 -5.48926,0 0,-50.50618 z"
         style="font-style:italic;font-variant:normal;font-weight:bold;font-stretch:normal;font-size:51.33333206px;font-family:'Open Sans';-inkscape-font-specification:'Open Sans Bold Italic';fill:#589632;fill-opacity:1;stroke:#ffffff;stroke-width:0.8927536;stroke-linejoin:miter;stroke-miterlimit:4;stroke-dasharray:none;stroke-opacity:1"
         id="path4391" />
      <path
         d="m 546.67021,571.95172 q 0,5.23861 -3.70964,8.29655 -3.70963,3.03288 -10.05111,3.03288 -5.53938,0 -8.92317,-2.25586 l 0,-6.86784 q 4.83756,2.70703 8.9733,2.70703 2.8073,0 4.3864,-1.05273 1.5791,-1.0778 1.5791,-2.93262 0,-1.0778 -0.35091,-1.87988 -0.32585,-0.82715 -0.95248,-1.52897 -0.62662,-0.70183 -3.10807,-2.55664 -3.45898,-2.48145 -4.86263,-4.91276 -1.40364,-2.43132 -1.40364,-5.23861 0,-3.2334 1.55403,-5.76498 1.55404,-2.55664 4.41146,-3.96028 2.88249,-1.42871 6.61719,-1.42871 5.43912,0 9.95084,2.48144 l -2.73209,5.84017 q -3.91016,-1.85482 -7.21875,-1.85482 -2.08041,0 -3.40886,1.12793 -1.32845,1.12793 -1.32845,2.98275 0,1.52897 0.82715,2.68197 0.82715,1.12793 3.70964,3.00781 3.03287,2.00521 4.53678,4.43652 1.50391,2.40625 1.50391,5.63965 z"
         style="font-style:italic;font-variant:normal;font-weight:bold;font-stretch:normal;font-size:51.33333206px;font-family:'Open Sans';-inkscape-font-specification:'Open Sans Bold Italic';fill:#4d4d4d;fill-opacity:1;stroke:#ffffff;stroke-width:0.8927536;stroke-linejoin:miter;stroke-miterlimit:4;stroke-dasharray:none;stroke-opacity:1"
         id="path4393" />
      <path
         d="m 562.81212,583.28115 q -5.03808,0 -7.74511,-2.68197 -2.68197,-2.70703 -2.68197,-7.61979 0,-5.3138 1.85482,-9.65006 1.87988,-4.36133 5.26367,-6.71745 3.38379,-2.38119 7.72005,-2.38119 4.56185,0 8.22136,1.80469 l -2.30599,5.73991 q -1.35352,-0.5765 -2.65691,-1.0026 -1.30338,-0.42611 -2.95768,-0.42611 -2.13053,0 -3.86002,1.60417 -1.70443,1.60416 -2.68197,4.41145 -0.95247,2.78223 -0.95247,5.99056 0,2.40625 1.12793,3.63444 1.15299,1.20313 3.18326,1.20313 1.90495,0 3.53418,-0.5765 1.62924,-0.60156 3.35873,-1.47884 l 0,6.16602 q -3.8099,1.98014 -8.42188,1.98014 z"
         style="font-style:italic;font-variant:normal;font-weight:bold;font-stretch:normal;font-size:51.33333206px;font-family:'Open Sans';-inkscape-font-specification:'Open Sans Bold Italic';fill:#4d4d4d;fill-opacity:1;stroke:#ffffff;stroke-width:0.8927536;stroke-linejoin:miter;stroke-miterlimit:4;stroke-dasharray:none;stroke-opacity:1"
         id="path4395" />
      <path
         d="m 599.38213,582.77985 -7.5446,0 3.43392,-16.36752 q 0.40105,-1.70442 0.40105,-2.98274 0,-3.08301 -2.70704,-3.08301 -2.30599,0 -4.18587,2.85742 -1.87988,2.85742 -2.95768,7.9707 l -2.45638,11.60515 -7.5446,0 8.27149,-39.0013 7.54459,0 q -0.97754,4.53678 -1.5039,6.96809 -0.52637,2.43132 -2.1556,7.74512 l 0.20052,0 q 1.55404,-1.93001 3.45898,-3.08301 1.90495,-1.17806 4.41146,-1.17806 3.45899,0 5.33887,2.10547 1.90495,2.08041 1.90495,5.9655 0,1.82975 -0.5765,4.51172 l -3.33366,15.96647 z"
         style="font-style:italic;font-variant:normal;font-weight:bold;font-stretch:normal;font-size:51.33333206px;font-family:'Open Sans';-inkscape-font-specification:'Open Sans Bold Italic';fill:#4d4d4d;fill-opacity:1;stroke:#ffffff;stroke-width:0.8927536;stroke-linejoin:miter;stroke-miterlimit:4;stroke-dasharray:none;stroke-opacity:1"
         id="path4397" />
      <path
         d="m 612.44105,554.75706 7.5446,0 -3.43392,16.36751 q -0.40104,1.70443 -0.40104,2.98275 0,3.08301 2.70703,3.08301 2.30599,0 4.18587,-2.85742 1.87988,-2.85743 2.95768,-7.97071 l 2.45638,-11.60514 7.5446,0 -5.94043,28.02279 -5.76498,0 0.52637,-5.18848 -0.15039,0 q -3.63444,5.68978 -8.89811,5.68978 -3.45899,0 -5.28874,-2.05534 -1.82975,-2.0804 -1.82975,-5.99056 0,-2.33105 0.60156,-5.33887 l 3.18327,-15.13932 z"
         style="font-style:italic;font-variant:normal;font-weight:bold;font-stretch:normal;font-size:51.33333206px;font-family:'Open Sans';-inkscape-font-specification:'Open Sans Bold Italic';fill:#4d4d4d;fill-opacity:1;stroke:#ffffff;stroke-width:0.8927536;stroke-linejoin:miter;stroke-miterlimit:4;stroke-dasharray:none;stroke-opacity:1"
         id="path4399" />
      <path
         d="m 645.32647,582.77985 -7.5446,0 8.27148,-39.0013 7.5446,0 -8.27148,39.0013 z"
         style="font-style:italic;font-variant:normal;font-weight:bold;font-stretch:normal;font-size:51.33333206px;font-family:'Open Sans';-inkscape-font-specification:'Open Sans Bold Italic';fill:#4d4d4d;fill-opacity:1;stroke:#ffffff;stroke-width:0.8927536;stroke-linejoin:miter;stroke-miterlimit:4;stroke-dasharray:none;stroke-opacity:1"
         id="path4401" />
      <path
         d="m 658.66108,554.75706 7.5446,0 -3.43392,16.36751 q -0.40104,1.70443 -0.40104,2.98275 0,3.08301 2.70703,3.08301 2.30599,0 4.18587,-2.85742 1.87988,-2.85743 2.95768,-7.97071 l 2.45638,-11.60514 7.5446,0 -5.94043,28.02279 -5.76497,0 0.52636,-5.18848 -0.15039,0 q -3.63444,5.68978 -8.89811,5.68978 -3.45898,0 -5.28874,-2.05534 -1.82975,-2.0804 -1.82975,-5.99056 0,-2.33105 0.60156,-5.33887 l 3.18327,-15.13932 z"
         style="font-style:italic;font-variant:normal;font-weight:bold;font-stretch:normal;font-size:51.33333206px;font-family:'Open Sans';-inkscape-font-specification:'Open Sans Bold Italic';fill:#4d4d4d;fill-opacity:1;stroke:#ffffff;stroke-width:0.8927536;stroke-linejoin:miter;stroke-miterlimit:4;stroke-dasharray:none;stroke-opacity:1"
         id="path4403" />
      <path
         d="m 707.5631,582.77985 -7.5446,0 3.43392,-16.36752 q 0.40104,-1.70442 0.40104,-2.98274 0,-3.08301 -2.70703,-3.08301 -2.30599,0 -4.18587,2.85742 -1.87988,2.85742 -2.95768,7.9707 l -2.45638,11.60515 -7.5446,0 5.94043,-28.02279 5.76498,0 -0.52637,5.18848 0.15039,0 q 3.6595,-5.71485 8.89811,-5.71485 3.45899,0 5.33887,2.10547 1.90495,2.08041 1.90495,5.9655 0,1.82975 -0.5765,4.51172 l -3.33366,15.96647 z"
         style="font-style:italic;font-variant:normal;font-weight:bold;font-stretch:normal;font-size:51.33333206px;font-family:'Open Sans';-inkscape-font-specification:'Open Sans Bold Italic';fill:#4d4d4d;fill-opacity:1;stroke:#ffffff;stroke-width:0.8927536;stroke-linejoin:miter;stroke-miterlimit:4;stroke-dasharray:none;stroke-opacity:1"
         id="path4405" />
      <path
         d="m 743.78217,554.80719 -0.87727,4.16081 -4.36133,1.02767 q 0.40104,1.30338 0.40104,2.95768 0,4.88769 -3.03288,7.74512 -3.03288,2.83235 -8.24642,2.83235 -1.47884,0 -2.48144,-0.25065 -2.10547,0.67676 -2.10547,1.95508 0,0.85221 0.75195,1.22819 0.75196,0.37598 2.2308,0.5765 l 3.43392,0.45117 q 4.08561,0.52637 5.94043,2.13053 1.87988,1.5791 1.87988,4.58692 0,5.28873 -3.91016,8.09603 -3.91015,2.80729 -11.17903,2.80729 -5.21355,0 -8.14616,-1.90495 -2.90755,-1.87988 -2.90755,-5.18848 0,-2.55664 1.72949,-4.41146 1.70442,-1.82975 5.36393,-3.03287 -1.85482,-1.17806 -1.85482,-3.33366 0,-1.77962 1.10287,-3.05794 1.12793,-1.30339 3.68457,-2.48145 -1.62924,-1.22819 -2.40625,-2.80729 -0.77702,-1.5791 -0.77702,-3.83496 0,-4.98796 3.13314,-7.89551 3.1582,-2.93262 8.57226,-2.93262 2.08041,0 4.16081,0.5765 l 9.90071,0 z m -20.57845,28.12305 q -2.6569,0.35091 -4.03548,1.42871 -1.35351,1.0778 -1.35351,2.73209 0,2.88249 4.86263,2.88249 3.78483,0 5.71484,-1.12793 1.93001,-1.12793 1.93001,-3.18327 0,-0.97754 -0.82714,-1.5039 -0.80209,-0.52637 -3.43392,-0.87728 l -2.85743,-0.35091 z m 6.24122,-23.91211 q -1.93002,0 -3.13314,1.93001 -1.17806,1.90495 -1.17806,4.78744 0,2.98274 2.5817,2.98274 1.87989,0 3.03288,-1.90494 1.17806,-1.93002 1.17806,-4.86263 0,-2.93262 -2.48144,-2.93262 z"
         style="font-style:italic;font-variant:normal;font-weight:bold;font-stretch:normal;font-size:51.33333206px;font-family:'Open Sans';-inkscape-font-specification:'Open Sans Bold Italic';fill:#4d4d4d;fill-opacity:1;stroke:#ffffff;stroke-width:0.8927536;stroke-linejoin:miter;stroke-miterlimit:4;stroke-dasharray:none;stroke-opacity:1"
         id="path4407" />
      <path
         d="m 759.27243,559.66982 q -2.20573,0 -4.16081,2.00521 -1.95508,2.00521 -2.55664,4.88769 l 1.12793,0 q 3.88509,0 6.04069,-1.20312 2.18067,-1.22819 2.18067,-3.30859 0,-2.38119 -2.63184,-2.38119 z m -4.11068,23.61133 q -5.26367,0 -8.17122,-2.83236 -2.90755,-2.83236 -2.90755,-7.99577 0,-5.18847 2.05534,-9.44954 2.0804,-4.28613 5.61458,-6.51693 3.53418,-2.25586 7.99577,-2.25586 4.43652,0 6.91797,2.05534 2.48144,2.03028 2.48144,5.58952 0,4.68717 -4.18587,7.24381 -4.18587,2.53158 -11.95606,2.53158 l -1.27832,0 -0.0501,0.52637 0,0.5013 q 0,2.28092 1.27832,3.60937 1.30339,1.30339 3.70964,1.30339 2.18066,0 3.96029,-0.47624 1.77962,-0.47623 4.31119,-1.67936 l 0,5.68978 q -4.31119,2.1556 -9.77539,2.1556 z"
         style="font-style:italic;font-variant:normal;font-weight:bold;font-stretch:normal;font-size:51.33333206px;font-family:'Open Sans';-inkscape-font-specification:'Open Sans Bold Italic';fill:#4d4d4d;fill-opacity:1;stroke:#ffffff;stroke-width:0.8927536;stroke-linejoin:miter;stroke-miterlimit:4;stroke-dasharray:none;stroke-opacity:1"
         id="path4409" />
      <path
         d="m 794.88994,582.77985 -7.54459,0 3.43392,-16.36752 q 0.40104,-1.70442 0.40104,-2.98274 0,-3.08301 -2.70703,-3.08301 -2.30599,0 -4.18588,2.85742 -1.87988,2.85742 -2.95768,7.9707 l -2.45638,11.60515 -7.54459,0 5.94043,-28.02279 5.76497,0 -0.52637,5.18848 0.15039,0 q 3.65951,-5.71485 8.89811,-5.71485 3.45899,0 5.33887,2.10547 1.90495,2.08041 1.90495,5.9655 0,1.82975 -0.5765,4.51172 l -3.33366,15.96647 z"
         style="font-style:italic;font-variant:normal;font-weight:bold;font-stretch:normal;font-size:51.33333206px;font-family:'Open Sans';-inkscape-font-specification:'Open Sans Bold Italic';fill:#4d4d4d;fill-opacity:1;stroke:#ffffff;stroke-width:0.8927536;stroke-linejoin:miter;stroke-miterlimit:4;stroke-dasharray:none;stroke-opacity:1"
         id="path4411" />
    </g>
    <g
       style="font-style:normal;font-variant:normal;font-weight:normal;font-stretch:normal;font-size:178.90455627px;line-height:125%;font-family:'Century Schoolbook L';-inkscape-font-specification:'Century Schoolbook L';text-align:start;letter-spacing:0px;word-spacing:0px;writing-mode:lr-tb;text-anchor:start;fill:#333333;fill-opacity:1;stroke:#ffffff;stroke-width:4.07457733;stroke-miterlimit:4;stroke-dasharray:none"
       id="text4351-2-9-9-2-6-5-6-6-2-2">
      <path
         d="m 221.60298,490.47607 0,-53.81113 q 0,-10.04591 -2.79539,-15.02519 -2.70802,-5.06663 -8.64821,-5.06663 -7.86202,0 -11.53096,6.72639 -3.66894,6.72639 -3.66894,21.05273 l 0,46.12383 -34.24345,0 0,-53.81113 q 0,-10.04591 -2.62067,-15.02519 -2.62068,-5.06663 -8.47351,-5.06663 -8.03673,0 -11.70567,7.16317 -3.66894,7.16317 -3.66894,23.41134 l 0,43.32844 -34.1561,0 0,-98.97405 25.76995,0 4.28043,12.2298 2.00918,0 q 3.93101,-6.81374 11.35625,-10.39533 7.51259,-3.58158 17.03437,-3.58158 21.40215,0 30.05037,13.016 l 2.70803,0 q 4.19307,-6.1149 11.61831,-9.52177 7.5126,-3.49423 16.51024,-3.49423 17.5585,0 25.94465,8.99764 8.38615,8.99764 8.38615,27.34234 l 0,64.38118 -34.15609,0 z"
         style="font-style:normal;font-variant:normal;font-weight:800;font-stretch:normal;font-size:178.90455627px;font-family:'Open Sans';-inkscape-font-specification:'Open Sans Ultra-Bold';letter-spacing:-9.85802078px;fill:#333333;fill-opacity:1;stroke:#ffffff;stroke-width:4.07457733;stroke-miterlimit:4;stroke-dasharray:none"
         id="path4350" />
      <path
         d="m 333.69357,490.47607 -6.55168,-13.10336 -0.69884,0 q -6.9011,8.56087 -14.06428,11.70567 -7.16317,3.14481 -18.51941,3.14481 -13.97692,0 -22.01365,-8.38615 -8.03673,-8.38615 -8.03673,-23.58605 0,-15.81139 11.00683,-23.4987 11.00682,-7.77466 31.88484,-8.73557 l 16.51024,-0.52413 0,-1.3977 q 0,-12.2298 -12.0551,-12.2298 -10.83211,0 -27.51705,7.33788 l -9.8712,-22.53778 q 17.29643,-8.91028 43.67787,-8.91028 19.04355,0 29.43888,9.43442 10.48269,9.43442 10.48269,26.38143 l 0,64.90531 -23.67341,0 z M 308.36041,468.113 q 6.20226,0 10.57004,-3.931 4.45515,-3.93101 4.45515,-10.22063 l 0,-7.6873 -7.86202,0.34942 q -16.85966,0.61149 -16.85966,12.40452 0,9.08499 9.69649,9.08499 z"
         style="font-style:normal;font-variant:normal;font-weight:800;font-stretch:normal;font-size:178.90455627px;font-family:'Open Sans';-inkscape-font-specification:'Open Sans Ultra-Bold';letter-spacing:-9.85802078px;fill:#333333;fill-opacity:1;stroke:#ffffff;stroke-width:4.07457733;stroke-miterlimit:4;stroke-dasharray:none"
         id="path4352" />
      <path
         d="m 430.1475,492.22319 q -7.5126,0 -13.45279,-2.44596 -5.94019,-2.53332 -11.79302,-8.99764 l -1.57241,0 q 1.57241,10.39533 1.57241,12.92865 l 0,39.74686 -34.1561,0 0,-141.95308 27.77913,0 4.80456,12.57923 1.57241,0 q 9.52177,-14.32634 26.29408,-14.32634 16.42287,0 25.76994,13.62749 9.34706,13.6275 9.34706,37.38826 0,23.93547 -9.78384,37.73768 -9.69649,13.71485 -26.38143,13.71485 z m -11.44361,-75.65007 q -7.51259,0 -10.57004,5.41605 -2.9701,5.3287 -3.23216,15.89875 l 0,2.70803 q 0,12.75393 3.40687,18.43206 3.40688,5.67812 10.74476,5.67812 6.55168,0 9.52177,-5.59077 2.9701,-5.67812 2.9701,-18.69413 0,-12.75393 -2.9701,-18.25734 -2.97009,-5.59077 -9.8712,-5.59077 z"
         style="font-style:normal;font-variant:normal;font-weight:800;font-stretch:normal;font-size:178.90455627px;font-family:'Open Sans';-inkscape-font-specification:'Open Sans Ultra-Bold';letter-spacing:-9.85802078px;fill:#333333;fill-opacity:1;stroke:#ffffff;stroke-width:4.07457733;stroke-miterlimit:4;stroke-dasharray:none"
         id="path4354" />
      <path
         d="m 469.38338,453.43724 0,-21.83893 46.91003,0 0,21.83893 -46.91003,0 z"
         style="font-style:normal;font-variant:normal;font-weight:bold;font-stretch:normal;font-family:'Open Sans';-inkscape-font-specification:'Open Sans Bold';fill:#589600;fill-opacity:1"
         id="path4356" />
      <path
         d="m 593.96586,461.47397 q 0,15.02519 -10.48269,22.8872 -10.39533,7.86202 -31.186,7.86202 -10.6574,0 -18.16999,-1.48505 -7.5126,-1.39769 -14.06428,-4.19307 l 0,-22.01365 q 7.42524,3.49423 16.68495,5.85283 9.34706,2.35861 16.42288,2.35861 14.50105,0 14.50105,-8.38615 0,-3.14481 -1.92182,-5.06664 -1.92183,-2.00918 -6.63904,-4.45514 -4.71721,-2.53331 -12.57923,-5.85283 -11.26889,-4.71721 -16.59759,-8.73558 -5.24134,-4.01836 -7.6873,-9.17235 -2.35861,-5.24134 -2.35861,-12.84129 0,-13.01601 10.04591,-20.09182 10.13327,-7.16317 28.65268,-7.16317 17.64586,0 34.33081,7.6873 l -8.03673,19.21826 q -7.33788,-3.1448 -13.71485,-5.15398 -6.37697,-2.00919 -13.016,-2.00919 -11.79303,0 -11.79303,6.37697 0,3.58159 3.7563,6.20226 3.84365,2.62067 16.68494,7.77466 11.44361,4.62986 16.77231,8.64822 5.3287,4.01836 7.86201,9.25971 2.53332,5.24134 2.53332,12.49187 z"
         style="font-style:normal;font-variant:normal;font-weight:bold;font-stretch:normal;font-family:'Open Sans';-inkscape-font-specification:'Open Sans Bold';fill:#589600;fill-opacity:1;stroke-width:4.07457733"
         id="path4358" />
      <path
         d="m 603.93757,367.56655 q 0,-13.01601 14.50105,-13.01601 14.50105,0 14.50105,13.01601 0,6.20226 -3.66894,9.69648 -3.58158,3.40688 -10.83211,3.40688 -14.50105,0 -14.50105,-13.10336 z m 27.77912,122.90952 -26.6435,0 0,-97.66371 26.6435,0 0,97.66371 z"
         style="font-style:normal;font-variant:normal;font-weight:bold;font-stretch:normal;font-family:'Open Sans';-inkscape-font-specification:'Open Sans Bold';fill:#589600;fill-opacity:1;stroke-width:4.07457733"
         id="path4360" />
      <path
         d="m 690.86973,470.99574 q 6.98845,0 16.7723,-3.05745 l 0,19.82976 q -9.95856,4.45514 -24.45961,4.45514 -15.9861,0 -23.32398,-8.03673 -7.25053,-8.12408 -7.25053,-24.28489 l 0,-47.08475 -12.75394,0 0,-11.26889 14.67577,-8.91028 7.6873,-20.61596 17.03437,0 0,20.79067 27.34235,0 0,20.00446 -27.34235,0 0,47.08475 q 0,5.67812 3.14481,8.38615 3.23216,2.70802 8.47351,2.70802 z"
         style="font-style:normal;font-variant:normal;font-weight:bold;font-stretch:normal;font-family:'Open Sans';-inkscape-font-specification:'Open Sans Bold';fill:#589600;fill-opacity:1;stroke-width:4.07457733"
         id="path4362" />
      <path
         d="m 757.88475,409.93408 q -8.47351,0 -13.27808,5.41606 -4.80456,5.3287 -5.50341,15.1999 l 37.38826,0 q -0.17471,-9.8712 -5.15399,-15.1999 -4.97928,-5.41606 -13.45278,-5.41606 z m 3.75629,82.28911 q -23.58605,0 -36.86412,-13.01601 -13.27807,-13.016 -13.27807,-36.86412 0,-24.54696 12.2298,-37.91239 12.31716,-13.45278 33.98138,-13.45278 20.70332,0 32.23427,11.79302 11.53096,11.79303 11.53096,32.58369 l 0,12.92865 -62.98349,0 q 0.43678,11.35625 6.72639,17.73322 6.28962,6.37697 17.64586,6.37697 8.82293,0 16.68495,-1.83447 7.86202,-1.83448 16.42288,-5.85284 l 0,20.61596 q -6.98846,3.49423 -14.93783,5.15398 -7.94937,1.74712 -19.39298,1.74712 z"
         style="font-style:normal;font-variant:normal;font-weight:bold;font-stretch:normal;font-family:'Open Sans';-inkscape-font-specification:'Open Sans Bold';fill:#589600;fill-opacity:1;stroke-width:4.07457733"
         id="path4364" />
    </g>
  </g>
</svg>
